…
We can perform basic queries and joins on the the table using the `dplyr` and `dbplyr` packages. There's a lot more information [here](https://cran.r-project.org/web/packages/dbplyr/vignettes/dbplyr.html).

If we want to pull in all the data into our current R environment as a normal data frame, we can use the function `collect`.

``` r
biograph_l <- collect(biograph)
biograph_l
#> # A tibble: 2,183 x 17
#>    bioid sname name    pid    birth      bstatus sex   matgrp statdate  
#>  * <int> <chr> <chr>   <chr>  <date>       <dbl> <chr>  <dbl> <date>    
#>  1  2227 <NA>  <NA>    TIB1   2017-03-24     0   U       1.22 2017-03-24
#>  2  2229 <NA>  <NA>    RAN9   2017-04-12     0   U       1.22 2017-04-12
#>  3   566 CLE   CLEM    <NA>   1975-03-01     1   M       5    1988-12-16
#>  4  2027 QN6   QN6     LAN106 2013-09-15     0.5 U       2.12 2013-11-16
#>  5    80 CRA   CRANE   CHE2   1991-09-05     0.5 F       1.1  1993-12-20
#>  6   602 LIP   LIP     <NA>   1966-07-02     9   M       9    1978-12-12
#>  7  2146 QA6   QA6     LAO106 2016-03-22     1   U       2.12 2016-09-12
#>  8    34 <NA>  <NA>    JUH8   1990-05-01     0   U       3    1990-05-01
#>  9    35 <NA>  <NA>    JUH9   1990-12-06     0   U       3    1990-12-06
#> 10  1471 EZE   EZEKIEL ELD1   2008-10-23     0   M       1.22 2009-04-05
#> # ... with 2,173 more rows, and 8 more variables: status <int>,
#> #   dcause <int>, matgrpconfidence <int>, alt_snames <lgl>,
#> #   entrydate <date>, entrytype <chr>, dcausenatureconfidence <int>,
#> #   dcauseagentconfidence <int>
```

Need a table that in a different schema? Use the `in_schema` function:

``` r
all_ranks <- tbl(babase, in_schema("babase_pending", "ALL_RANKS"))
collect(all_ranks)
#> # A tibble: 109,801 x 10
#>    rnkid sname rnkdate      grp rnktype  rank proprank elo_score
#>  * <int> <chr> <date>     <dbl> <chr>   <int>    <dbl>     <int>
#>  1 58094 SKI   1971-01-01     1 ADF         1     1           NA
#>  2 58098 RIN   1971-01-01     1 ADF         5     0           NA
#>  3 58097 FLU   1971-01-01     1 ADF         4     0.25        NA
#>  4 58096 MOM   1971-01-01     1 ADF         3     0.5         NA
#>  5 58095 ALT   1971-01-01     1 ADF         2     0.75        NA
#>  6 58100 ALT   1971-02-01     1 ADF         2     0.8         NA
#>  7 58099 SKI   1971-02-01     1 ADF         1     1           NA
#>  8 58103 PRE   1971-02-01     1 ADF         5     0.2         NA
#>  9 58102 FLU   1971-02-01     1 ADF         4     0.4         NA
#> 10 58101 MOM   1971-02-01     1 ADF         3     0.6         NA
#> # ... with 109,791 more rows, and 2 more variables: elo_score_std <dbl>,
#> #   elo_ordinal <int>
```
…
